114 
14.833970000 0.000000000 0.000000000 7.416985000 12.846594859 0.000000000 7.416985000 4.282198286 12.111885787 
H 12.918904473 3.579917767 5.111215802
H 12.727546260 11.227067467 10.284202221
H 16.940393740 13.438394662 7.156913311
H 16.749035527 6.012206394 1.671440239
H 13.581241234 5.408844655 10.284202221
H 18.001764294 4.303181058 7.156913311
H 9.559751967 7.951613998 7.156913311
H 11.666175707 8.181996266 1.671440239
H 20.108188033 9.398140579 5.111215802
H 11.474817494 12.715131372 5.111215802
H 16.086698766 11.498987058 1.671440239
H 18.193122507 9.057277595 10.284202221
H 16.086698767 5.408844655 10.284202221
H 9.559751967 9.398140579 5.111215802
H 13.581241234 11.498987058 1.671440239
H 20.108188034 7.951613998 7.156913311
H 11.666175707 4.303181058 7.156913311
H 16.749035527 3.579917767 5.111215802
H 11.474817494 9.057277595 10.284202221
H 16.940393740 11.227067467 10.284202221
H 18.001764293 8.181996266 1.671440239
H 12.727546260 13.438394662 7.156913311
H 18.193122506 12.715131372 5.111215802
H 12.918904473 6.012206394 1.671440239
H 7.416985000 4.282198286 8.704691196
H 7.416985000 9.634260993 1.135731530
H 2.781962734 1.606166933 1.135731530
H 12.052007266 1.606166933 1.135731530
C 24.450091053 8.231669766 12.062227055
C 12.176464275 2.935446925 5.566622708
C 11.983622665 11.013385773 11.042406272
C 17.684317336 14.082009065 6.702717594
C 17.491475726 6.226744528 0.912025000
C 14.138256807 4.871428771 11.042406272
C 18.187188919 3.337117125 6.702717594
C 8.630403746 8.274063529 6.702717594
C 11.480751082 7.431755126 0.912025000
C 21.037536254 9.077403927 5.566622708
C 11.287909472 13.680338865 5.566622708
C 15.529683193 12.034690064 0.912025000
C 18.380030529 9.808375175 11.042406272
C 15.529683193 4.871428771 11.042406272
C 8.630403746 9.077403927 5.566622708
C 14.138256807 12.034690064 0.912025000
C 21.037536254 8.274063529 6.702717594
C 11.480751082 3.337117125 6.702717594
C 17.491475726 2.935446925 5.566622708
C 11.287909472 9.808375175 11.042406272
C 17.684317336 11.013385773 11.042406272
C 18.187188919 7.431755126 0.912025000
C 11.983622665 14.082009065 6.702717594
C 18.380030529 13.680338865 5.566622708
C 12.176464275 6.226744528 0.912025000
C 17.154744607 15.788893302 8.471052919
C 27.347165394 13.249549718 12.062227055
C 20.051818948 14.116266651 3.740150331
C 22.250955000 6.961997974 8.471052919
C 20.051818948 8.231669766 12.062227055
C 19.353880659 17.058565093 12.062227055
C 24.450091053 14.116266651 3.740150331
C 25.148029341 17.058565093 12.062227055
C 17.154744607 13.249549718 12.062227055
C 22.250955000 10.307251275 3.740150331
C 27.347165394 15.788893302 8.471052919
C 23.649798371 17.022594628 12.036792095
C 22.250955000 9.478217687 4.988885755
C 20.852111629 17.022594628 12.036792095
C 22.250955000 7.862972493 7.273187415
C 17.935011429 15.338406042 7.273187415
C 25.168055201 14.530783445 4.988885755
C 25.168055201 9.547161079 12.036792095
C 17.935011429 11.970028870 12.036792095
C 26.566898572 11.970028870 12.036792095
C 26.566898572 15.338406042 7.273187415
C 19.333854800 14.530783445 4.988885755
C 19.333854800 9.547161079 12.036792095
O 1.995762324 1.152253915 0.814766557
O 13.469986459 2.092710303 3.244774202
O 13.392849815 13.416555451 11.157469187
O 16.275090186 14.991547981 8.930093390
O 16.197953542 3.756772557 0.891434794
O 11.352437241 4.890270443 11.157469187
O 19.679486301 4.102774178 8.930093390
O 8.547333514 6.598867559 8.930093390
O 9.988453700 9.786964183 0.891434794
O 21.120606486 10.618995310 3.244774202
O 9.911317056 12.981484105 3.244774202
O 18.315502759 12.149452978 0.891434794
O 19.756622945 7.386363824 11.157469187
O 18.315502759 4.890270443 11.157469187
O 8.547333514 10.618995310 3.244774202
O 11.352437241 12.149452978 0.891434794
O 21.120606486 6.598867559 8.930093390
O 9.988453700 4.102774178 8.930093390
O 16.197953542 2.092710303 3.244774202
O 9.911317056 7.386363824 11.157469187
O 16.275090186 13.416555451 11.157469187
O 19.679486301 9.786964183 0.891434794
O 13.392849815 14.991547981 8.930093390
O 19.756622945 12.981484105 3.244774202
O 13.469986459 3.756772557 0.891434794
O 7.416985000 4.282198286 9.667586116
O 7.416985000 10.542087029 0.814766557
O 12.838207676 1.152253915 0.814766557
O 28.201453726 16.282116900 11.513195272
O 16.300456274 16.282116900 11.513195272
O 22.250955000 5.975550777 11.513195272
O 22.250955000 12.846594859 1.796071543
Zr 14.833970000 2.062306695 1.458271049
Zr 14.833970000 15.066486451 10.653614738
Zr 9.202994988 5.313351634 10.653614738
Zr 20.464945012 5.313351634 10.653614738
Zr 9.202994988 11.815441512 1.458271049
Zr 20.464945012 11.815441512 1.458271049
